{
  "_fv": 18,
  "_type": "tool",
  "definition": {
    "renderType": 0,
    "texture": "copper_shovel",
    "customModelName": "Normal",
    "name": "Copper Shovel",
    "specialInfo": [],
    "creativeTab": {
      "value": "CUSTOM:MagmaWorldtab"
    },
    "toolType": "Spade",
    "harvestLevel": 2,
    "efficiency": 6.0,
    "attackSpeed": 1.0,
    "enchantability": 13,
    "damageVsEntity": 4.0,
    "usageCount": 216,
    "blocksAffected": [],
    "hasGlow": false,
    "repairItems": [
      {
        "value": "CUSTOM:CopperIngot"
      }
    ],
    "immuneToFire": false,
    "stayInGridWhenCrafting": false,
    "damageOnCrafting": false
  }
}