{
  "_fv": 18,
  "_type": "achievement",
  "definition": {
    "achievementName": "Hard As Steel But As Slow As A Snail",
    "achievementDescription": "Craft And were The",
    "achievementIcon": {
      "value": "Blocks.TNT"
    },
    "background": "Default",
    "disableDisplay": false,
    "showPopup": true,
    "announceToChat": true,
    "hideIfNotCompleted": false,
    "rewardLoot": [],
    "rewardRecipes": [],
    "rewardFunction": "No function",
    "rewardXP": 1,
    "achievementType": "task",
    "parent": {
      "value": "No parent: root"
    },
    "triggerxml": "<xml xmlns=\"https://developers.google.com/blockly/xml\"><block type=\"custom_trigger\" x=\"31\" y=\"34\"><next><block type=\"advancement_trigger\" deletable=\"false\"></block></next></block></xml>"
  }
}