{
  "_fv": 18,
  "_type": "armor",
  "definition": {
    "enableHelmet": true,
    "textureHelmet": "obsidain_helmet",
    "enableBody": true,
    "textureBody": "obsidain_chestplate",
    "enableLeggings": true,
    "textureLeggings": "obsidain_leggings",
    "enableBoots": true,
    "textureBoots": "obsidain_boots",
    "creativeTab": {
      "value": "CUSTOM:MagmaWorldtab"
    },
    "armorTextureFile": "obsidain_",
    "helmetName": "Obsidain Helmet",
    "bodyName": "Obsidain Chestplate",
    "leggingsName": "Obsidain Leggings",
    "bootsName": "Obsidain Boots",
    "helmetSpecialInfo": [],
    "bodySpecialInfo": [],
    "leggingsSpecialInfo": [],
    "bootsSpecialInfo": [],
    "helmetModelName": "Default",
    "helmetModelPart": "Helmet",
    "helmetModelTexture": "From armor",
    "bodyModelName": "Default",
    "bodyModelPart": "Body",
    "armsModelPartL": "Arms L",
    "armsModelPartR": "Arms R",
    "bodyModelTexture": "From armor",
    "leggingsModelName": "Default",
    "leggingsModelPartL": "Leggings L",
    "leggingsModelPartR": "Leggings R",
    "leggingsModelTexture": "From armor",
    "bootsModelName": "Default",
    "bootsModelPartL": "Boots L",
    "bootsModelPartR": "Boots R",
    "bootsModelTexture": "From armor",
    "maxDamage": 60,
    "damageValueHelmet": 6,
    "damageValueBody": 14,
    "damageValueLeggings": 12,
    "damageValueBoots": 6,
    "enchantability": 15,
    "toughness": 2.5,
    "knockbackResistance": 0.2,
    "equipSound": {
      "value": ""
    },
    "repairItems": [
      {
        "value": "CUSTOM:ObsidainIngot"
      }
    ]
  }
}