{
  "parent": "block/cube",
  "textures": {
    "down": "magma_world:blocks/tin_ore",
    "up": "magma_world:blocks/tin_ore",
    "north": "magma_world:blocks/tin_ore",
    "east": "magma_world:blocks/tin_ore",
    "south": "magma_world:blocks/tin_ore",
    "west": "magma_world:blocks/tin_ore",
    "particle": "magma_world:blocks/tin_ore"
  }
}